ReproducibleData_Week2_RMarkdown.utf8
…
Histogram from total amount of steps per day with NAs replaced by mean of interval.

Creation of FullDF_TotStp which is a summary for all input needed for plotting further questions.

FullDF_TotStp<-Full_Data %>% group_by(date) %>% summarise(Sum= sum(steps), Mean= mean(steps), Median=median(steps[steps>0])) %>% print

## `summarise()` ungrouping output (override with `.groups` argument)

## # A tibble: 61 x 4
##    date          Sum   Mean Median
##    <date>      <dbl>  <dbl>  <dbl>
##  1 2012-10-01 10766. 37.4     37.5
##  2 2012-10-02   126   0.438   63  
##  3 2012-10-03 11352  39.4     61  
##  4 2012-10-04 12116  42.1     56.5
##  5 2012-10-05 13294  46.2     66  
##  6 2012-10-06 15420  53.5     67  
##  7 2012-10-07 11015  38.2     52.5
##  8 2012-10-08 10766. 37.4     37.5
##  9 2012-10-09 12811  44.5     48  
## 10 2012-10-10  9900  34.4     56.5
## # ... with 51 more rows
…
